24.0,2024-02-28,24.0.2,Eric Engestrom
,2024-03-13,24.0.3,Eric Engestrom
,2024-03-27,24.0.4,Eric Engestrom
,2024-04-10,24.0.5,Eric Engestrom
,2024-04-24,24.0.6,Eric Engestrom
,2024-05-08,24.0.7,Eric Engestrom
24.1,2024-04-10,24.1.0-rc1,Eric Engestrom,24.1 branchpoint
,2024-04-17,24.1.0-rc2,Eric Engestrom
,2024-04-24,24.1.0-rc3,Eric Engestrom
,2024-05-01,24.1.0-rc4,Eric Engestrom,or 24.1.0 final
